
[
	{
		"id": "station1",
		"stationName": "Bến xe Thống nhất",
		"stationAddress":"Số 1 Giải phóng",
		"numberOfSingleBikes": 24,
		"numberOfTwinBikes": 24,
		"numberOfEBikes": 32,
		"numberOfEmptyDocks": 2	
	},
	{
		"id": "station2",
		"stationName": "Bến xe Miền Đông",
		"stationAddress":"Số 14 Giải Phóng",
		"numberOfSingleBikes": 21,
		"numberOfTwinBikes": 42,
		"numberOfEBikes": 23,
		"numberOfEmptyDocks": 0	
	},
	{
		"id": "station3",
		"stationName": "Bến xe Nam Bộ",
		"stationAddress":"Số 32 Nguyễn Huệ",
		"numberOfSingleBikes":14,
		"numberOfTwinBikes": 0,
		"numberOfEBikes": 3,
		"numberOfEmptyDocks": 1	
	},
	{
		"id": "station4",
		"stationName": "Bến xe Nước Ngầm",
		"stationAddress":"Số 34 Giải phóng",
		"numberOfSingleBikes": 42,
		"numberOfTwinBikes": 214,
		"numberOfEBikes": 5,
		"numberOfEmptyDocks": 2	
	},
	{
		"id": "station5",
		"stationName": "Bến xe Gia Lâm",
		"stationAddress":"Số 4 Trần Đại Nghĩa",
		"numberOfSingleBikes": 2,
		"numberOfTwinBikes": 4,
		"numberOfEBikes": 12,
		"numberOfEmptyDocks": 1	
	}
	
]